inputs/fq/AB27_FDMS202326674-1a_H3FJ2DSXY_L2_1.fq.gz|inputs/fq/AB27_FDMS202326674-1a_H3FJ2DSXY_L2_2.fq.gz
inputs/fq/AB28_FDMS202326675-1a_H3FJ2DSXY_L2_1.fq.gz|inputs/fq/AB28_FDMS202326675-1a_H3FJ2DSXY_L2_2.fq.gz
inputs/fq/AB29_FDMS202326676-1a_H3FJ2DSXY_L2_1.fq.gz|inputs/fq/AB29_FDMS202326676-1a_H3FJ2DSXY_L2_2.fq.gz
inputs/fq/AB30_FDMS202326677-1a_H35W7DSXY_L3_1.fq.gz|inputs/fq/AB30_FDMS202326677-1a_H35W7DSXY_L3_2.fq.gz
inputs/fq/AB31_FDMS202326678-1a_H3FJ2DSXY_L2_1.fq.gz|inputs/fq/AB31_FDMS202326678-1a_H3FJ2DSXY_L2_2.fq.gz
inputs/fq/AB32_FDMS202326679-1a_H35W7DSXY_L3_1.fq.gz|inputs/fq/AB32_FDMS202326679-1a_H35W7DSXY_L3_2.fq.gz
inputs/fq/AB33_FDMS202326680-1a_H35W7DSXY_L4_1.fq.gz|inputs/fq/AB33_FDMS202326680-1a_H35W7DSXY_L4_2.fq.gz
inputs/fq/AB34_FDMS202326681-1a_H3FJ2DSXY_L2_1.fq.gz|inputs/fq/AB34_FDMS202326681-1a_H3FJ2DSXY_L2_2.fq.gz
